Prod1,Prod2,Prod3,Prod4,Prod5,Prod6,Prod7
corned_b,peppers,bourbon,cracker,chicken,apples,coke
olives,bourbon,coke,turkey,ice_crea,ham,baguette
hering,corned_b,olives,ham,turkey,bourbon,peppers
baguette,sardines,apples,peppers,avocado,ice_crea,bourbon
baguette,soda,hering,cracker,heineken,peppers,apples
baguette,soda,hering,cracker,heineken,corned_b,ham
avocado,cracker,artichok,heineken,ham,ice_crea,olives
hering,corned_b,apples,olives,steak,cracker,chicken
corned_b,peppers,bourbon,cracker,chicken,avocado,soda
baguette,sardines,apples,peppers,avocado,ice_crea,ice_crea
soda,olives,bourbon,cracker,heineken,steak,corned_b
soda,olives,bourbon,cracker,heineken,steak,steak
soda,olives,bourbon,cracker,heineken,ham,hering
corned_b,peppers,bourbon,cracker,chicken,sardines,olives
sardines,heineken,chicken,coke,ice_crea,hering,cracker
sardines,heineken,chicken,coke,ice_crea,artichok,steak
olives,bourbon,coke,turkey,ice_crea,heineken,apples
sardines,heineken,chicken,coke,ice_crea,soda,ham
hering,corned_b,olives,ham,turkey,cracker,avocado
hering,corned_b,apples,olives,steak,bordeaux,avocado
sardines,heineken,chicken,coke,ice_crea,steak,cracker
baguette,sardines,apples,peppers,avocado,olives,cracker
corned_b,peppers,bourbon,cracker,chicken,steak,baguette
baguette,sardines,apples,peppers,avocado,cracker,bourbon
baguette,hering,avocado,artichok,heineken,olives,cracker
baguette,hering,avocado,artichok,heineken,chicken,apples
olives,bourbon,coke,turkey,ice_crea,apples,baguette
avocado,cracker,artichok,heineken,ham,coke,ice_crea
sardines,heineken,chicken,coke,ice_crea,olives,ham
soda,olives,bourbon,cracker,heineken,bordeaux,artichok
baguette,soda,hering,cracker,heineken,peppers,chicken
avocado,cracker,artichok,heineken,ham,ice_crea,bourbon
baguette,hering,avocado,artichok,heineken,soda,olives
soda,olives,bourbon,cracker,heineken,ham,peppers
sardines,heineken,chicken,coke,ice_crea,olives,cracker
baguette,soda,hering,cracker,heineken,steak,sardines
sardines,heineken,chicken,coke,ice_crea,artichok,turkey
soda,olives,bourbon,cracker,heineken,artichok,hering
baguette,hering,avocado,artichok,heineken,sardines,peppers
sardines,heineken,chicken,coke,ice_crea,bordeaux,olives
sardines,heineken,chicken,coke,ice_crea,bourbon,peppers
olives,bourbon,coke,turkey,ice_crea,baguette,steak
baguette,hering,avocado,artichok,heineken,peppers,ham
baguette,hering,avocado,artichok,heineken,bordeaux,cracker
hering,corned_b,apples,olives,steak,ham,ice_crea
avocado,cracker,artichok,heineken,ham,coke,apples
corned_b,peppers,bourbon,cracker,chicken,baguette,ham
olives,bourbon,coke,turkey,ice_crea,sardines,avocado
hering,corned_b,olives,ham,turkey,cracker,steak
corned_b,peppers,bourbon,cracker,chicken,bordeaux,ice_crea
baguette,soda,hering,cracker,heineken,olives,olives
sardines,heineken,chicken,coke,ice_crea,artichok,baguette
avocado,cracker,artichok,heineken,ham,corned_b,sardines
baguette,hering,avocado,artichok,heineken,olives,bourbon
soda,olives,bourbon,cracker,heineken,bordeaux,chicken
baguette,soda,hering,cracker,heineken,avocado,artichok
baguette,sardines,apples,peppers,avocado,ham,coke
baguette,soda,hering,cracker,heineken,corned_b,turkey
sardines,heineken,chicken,coke,ice_crea,ham,ham
baguette,sardines,apples,peppers,avocado,ice_crea,coke
baguette,hering,avocado,artichok,heineken,turkey,turkey
hering,corned_b,apples,olives,steak,avocado,bourbon
hering,corned_b,olives,ham,turkey,bourbon,peppers
baguette,hering,avocado,artichok,heineken,bordeaux,coke
baguette,hering,avocado,artichok,heineken,bordeaux,soda
corned_b,peppers,bourbon,cracker,chicken,ham,steak
olives,bourbon,coke,turkey,ice_crea,soda,sardines
sardines,heineken,chicken,coke,ice_crea,cracker,apples
avocado,cracker,artichok,heineken,ham,steak,steak
baguette,hering,avocado,artichok,heineken,ice_crea,soda
baguette,sardines,apples,peppers,avocado,artichok,heineken
baguette,soda,hering,cracker,heineken,steak,steak
corned_b,peppers,bourbon,cracker,chicken,hering,artichok
hering,corned_b,olives,ham,turkey,cracker,avocado
baguette,soda,hering,cracker,heineken,apples,coke
baguette,hering,avocado,artichok,heineken,bourbon,ham
olives,bourbon,coke,turkey,ice_crea,cracker,baguette
baguette,sardines,apples,peppers,avocado,artichok,cracker
corned_b,peppers,bourbon,cracker,chicken,ham,heineken
corned_b,peppers,bourbon,cracker,chicken,ice_crea,baguette
hering,corned_b,apples,olives,steak,turkey,ice_crea
corned_b,peppers,bourbon,cracker,chicken,artichok,heineken
hering,corned_b,olives,ham,turkey,heineken,sardines
olives,bourbon,coke,turkey,ice_crea,steak,ham
olives,bourbon,coke,turkey,ice_crea,baguette,heineken
baguette,hering,avocado,artichok,heineken,ham,bourbon
baguette,hering,avocado,artichok,heineken,ice_crea,ham
avocado,cracker,artichok,heineken,ham,turkey,sardines
sardines,heineken,chicken,coke,ice_crea,soda,apples
avocado,cracker,artichok,heineken,ham,chicken,soda
soda,olives,bourbon,cracker,heineken,hering,steak
hering,corned_b,apples,olives,steak,bordeaux,ham
sardines,heineken,chicken,coke,ice_crea,hering,corned_b
hering,corned_b,olives,ham,turkey,steak,sardines
corned_b,peppers,bourbon,cracker,chicken,soda,artichok
corned_b,peppers,bourbon,cracker,chicken,hering,soda
baguette,soda,hering,cracker,heineken,bourbon,peppers
avocado,cracker,artichok,heineken,ham,bourbon,soda
corned_b,peppers,bourbon,cracker,chicken,olives,artichok
corned_b,peppers,bourbon,cracker,chicken,turkey,apples
baguette,sardines,apples,peppers,avocado,steak,ice_crea
soda,olives,bourbon,cracker,heineken,steak,baguette
baguette,soda,hering,cracker,heineken,ice_crea,apples
olives,bourbon,coke,turkey,ice_crea,cracker,corned_b
soda,olives,bourbon,cracker,heineken,avocado,avocado
hering,corned_b,apples,olives,steak,avocado,peppers
avocado,cracker,artichok,heineken,ham,turkey,sardines
corned_b,peppers,bourbon,cracker,chicken,heineken,ham
soda,olives,bourbon,cracker,heineken,peppers,artichok
olives,bourbon,coke,turkey,ice_crea,corned_b,cracker
avocado,cracker,artichok,heineken,ham,ice_crea,sardines
baguette,hering,avocado,artichok,heineken,olives,peppers
sardines,heineken,chicken,coke,ice_crea,avocado,ham
olives,bourbon,coke,turkey,ice_crea,soda,ham
hering,corned_b,olives,ham,turkey,apples,bourbon
baguette,soda,hering,cracker,heineken,apples,chicken
corned_b,peppers,bourbon,cracker,chicken,heineken,apples
sardines,heineken,chicken,coke,ice_crea,baguette,artichok
olives,bourbon,coke,turkey,ice_crea,corned_b,apples
baguette,hering,avocado,artichok,heineken,steak,chicken
sardines,heineken,chicken,coke,ice_crea,bourbon,soda
sardines,heineken,chicken,coke,ice_crea,artichok,bourbon
corned_b,peppers,bourbon,cracker,chicken,steak,steak
sardines,heineken,chicken,coke,ice_crea,corned_b,corned_b
baguette,sardines,apples,peppers,avocado,steak,olives
avocado,cracker,artichok,heineken,ham,bordeaux,ice_crea
baguette,soda,hering,cracker,heineken,olives,ice_crea
soda,olives,bourbon,cracker,heineken,apples,apples
baguette,hering,avocado,artichok,heineken,sardines,apples
soda,olives,bourbon,cracker,heineken,coke,baguette
hering,corned_b,olives,ham,turkey,apples,avocado
hering,corned_b,apples,olives,steak,avocado,artichok
hering,corned_b,olives,ham,turkey,coke,heineken
baguette,soda,hering,cracker,heineken,artichok,turkey
baguette,sardines,apples,peppers,avocado,soda,steak
hering,corned_b,olives,ham,turkey,steak,apples
hering,corned_b,olives,ham,turkey,bourbon,cracker
baguette,soda,hering,cracker,heineken,ham,sardines
baguette,sardines,apples,peppers,avocado,turkey,corned_b
hering,corned_b,apples,olives,steak,ham,baguette
avocado,cracker,artichok,heineken,ham,olives,chicken
hering,corned_b,apples,olives,steak,cracker,coke
baguette,soda,hering,cracker,heineken,bordeaux,peppers
corned_b,peppers,bourbon,cracker,chicken,apples,soda
baguette,soda,hering,cracker,heineken,chicken,olives
avocado,cracker,artichok,heineken,ham,hering,soda
hering,corned_b,apples,olives,steak,heineken,sardines
hering,corned_b,olives,ham,turkey,soda,steak
corned_b,peppers,bourbon,cracker,chicken,olives,ice_crea
baguette,soda,hering,cracker,heineken,chicken,chicken
baguette,sardines,apples,peppers,avocado,bourbon,bourbon
avocado,cracker,artichok,heineken,ham,turkey,hering
avocado,cracker,artichok,heineken,ham,bordeaux,coke
olives,bourbon,coke,turkey,ice_crea,soda,apples
olives,bourbon,coke,turkey,ice_crea,cracker,steak
baguette,soda,hering,cracker,heineken,chicken,turkey
baguette,hering,avocado,artichok,heineken,corned_b,cracker
hering,corned_b,olives,ham,turkey,baguette,bourbon
avocado,cracker,artichok,heineken,ham,bordeaux,chicken
hering,corned_b,olives,ham,turkey,heineken,bourbon
soda,olives,bourbon,cracker,heineken,turkey,avocado
hering,corned_b,apples,olives,steak,peppers,bourbon
corned_b,peppers,bourbon,cracker,chicken,ice_crea,hering
olives,bourbon,coke,turkey,ice_crea,peppers,apples
baguette,hering,avocado,artichok,heineken,bourbon,turkey
corned_b,peppers,bourbon,cracker,chicken,baguette,steak
hering,corned_b,apples,olives,steak,bordeaux,coke
baguette,hering,avocado,artichok,heineken,cracker,apples
baguette,soda,hering,cracker,heineken,apples,sardines
avocado,cracker,artichok,heineken,ham,bourbon,soda
soda,olives,bourbon,cracker,heineken,turkey,corned_b
baguette,sardines,apples,peppers,avocado,steak,coke
hering,corned_b,apples,olives,steak,turkey,coke
baguette,sardines,apples,peppers,avocado,heineken,corned_b
soda,olives,bourbon,cracker,heineken,baguette,hering
hering,corned_b,apples,olives,steak,sardines,ice_crea
sardines,heineken,chicken,coke,ice_crea,artichok,bourbon
soda,olives,bourbon,cracker,heineken,turkey,hering
corned_b,peppers,bourbon,cracker,chicken,apples,coke
avocado,cracker,artichok,heineken,ham,steak,hering
hering,corned_b,apples,olives,steak,sardines,chicken
baguette,sardines,apples,peppers,avocado,ice_crea,soda
sardines,heineken,chicken,coke,ice_crea,apples,artichok
baguette,sardines,apples,peppers,avocado,hering,ham
hering,corned_b,olives,ham,turkey,baguette,avocado
soda,olives,bourbon,cracker,heineken,hering,coke
soda,olives,bourbon,cracker,heineken,sardines,avocado
baguette,sardines,apples,peppers,avocado,bourbon,olives
baguette,hering,avocado,artichok,heineken,turkey,steak
olives,bourbon,coke,turkey,ice_crea,heineken,baguette
avocado,cracker,artichok,heineken,ham,chicken,corned_b
baguette,soda,hering,cracker,heineken,steak,avocado
hering,corned_b,olives,ham,turkey,chicken,sardines
soda,olives,bourbon,cracker,heineken,ice_crea,sardines
baguette,sardines,apples,peppers,avocado,soda,chicken
baguette,sardines,apples,peppers,avocado,heineken,corned_b
soda,olives,bourbon,cracker,heineken,baguette,chicken
baguette,soda,hering,cracker,heineken,avocado,chicken
baguette,soda,hering,cracker,heineken,steak,ham
baguette,hering,avocado,artichok,heineken,soda,olives
baguette,soda,hering,cracker,heineken,olives,ice_crea
hering,corned_b,olives,ham,turkey,bourbon,chicken
baguette,soda,hering,cracker,heineken,chicken,steak
baguette,soda,hering,cracker,heineken,sardines,sardines
hering,corned_b,apples,olives,steak,peppers,ice_crea
sardines,heineken,chicken,coke,ice_crea,corned_b,apples
baguette,sardines,apples,peppers,avocado,heineken,ice_crea
sardines,heineken,chicken,coke,ice_crea,artichok,corned_b
baguette,hering,avocado,artichok,heineken,coke,ham
baguette,sardines,apples,peppers,avocado,bordeaux,coke
baguette,soda,hering,cracker,heineken,bourbon,sardines
hering,corned_b,apples,olives,steak,coke,cracker
baguette,sardines,apples,peppers,avocado,bourbon,coke
olives,bourbon,coke,turkey,ice_crea,heineken,baguette
baguette,soda,hering,cracker,heineken,peppers,chicken
baguette,sardines,apples,peppers,avocado,artichok,soda
avocado,cracker,artichok,heineken,ham,corned_b,peppers
hering,corned_b,olives,ham,turkey,bordeaux,baguette
soda,olives,bourbon,cracker,heineken,avocado,chicken
baguette,hering,avocado,artichok,heineken,bourbon,corned_b
avocado,cracker,artichok,heineken,ham,turkey,hering
olives,bourbon,coke,turkey,ice_crea,bordeaux,soda
hering,corned_b,apples,olives,steak,avocado,turkey
hering,corned_b,olives,ham,turkey,bourbon,heineken
soda,olives,bourbon,cracker,heineken,chicken,baguette
avocado,cracker,artichok,heineken,ham,soda,peppers
sardines,heineken,chicken,coke,ice_crea,corned_b,olives
olives,bourbon,coke,turkey,ice_crea,heineken,baguette
baguette,soda,hering,cracker,heineken,avocado,peppers
sardines,heineken,chicken,coke,ice_crea,peppers,bourbon
hering,corned_b,apples,olives,steak,ham,ham
olives,bourbon,coke,turkey,ice_crea,peppers,soda
baguette,soda,hering,cracker,heineken,ham,bourbon
soda,olives,bourbon,cracker,heineken,chicken,ice_crea
soda,olives,bourbon,cracker,heineken,baguette,peppers
hering,corned_b,apples,olives,steak,chicken,avocado
sardines,heineken,chicken,coke,ice_crea,turkey,hering
avocado,cracker,artichok,heineken,ham,olives,steak
avocado,cracker,artichok,heineken,ham,bordeaux,steak
olives,bourbon,coke,turkey,ice_crea,sardines,heineken
sardines,heineken,chicken,coke,ice_crea,cracker,baguette
baguette,soda,hering,cracker,heineken,bourbon,corned_b
sardines,heineken,chicken,coke,ice_crea,baguette,steak
avocado,cracker,artichok,heineken,ham,peppers,ice_crea
baguette,hering,avocado,artichok,heineken,coke,turkey
soda,olives,bourbon,cracker,heineken,corned_b,hering
corned_b,peppers,bourbon,cracker,chicken,coke,soda
sardines,heineken,chicken,coke,ice_crea,artichok,artichok
baguette,hering,avocado,artichok,heineken,apples,peppers
baguette,sardines,apples,peppers,avocado,olives,artichok
hering,corned_b,olives,ham,turkey,peppers,baguette
avocado,cracker,artichok,heineken,ham,peppers,corned_b
baguette,sardines,apples,peppers,avocado,heineken,coke
baguette,sardines,apples,peppers,avocado,ham,hering
sardines,heineken,chicken,coke,ice_crea,peppers,peppers
sardines,heineken,chicken,coke,ice_crea,soda,artichok
hering,corned_b,olives,ham,turkey,avocado,baguette
sardines,heineken,chicken,coke,ice_crea,hering,bourbon
baguette,hering,avocado,artichok,heineken,ice_crea,sardines
baguette,hering,avocado,artichok,heineken,olives,apples
hering,corned_b,olives,ham,turkey,bordeaux,steak
hering,corned_b,olives,ham,turkey,peppers,apples
baguette,soda,hering,cracker,heineken,ham,sardines
corned_b,peppers,bourbon,cracker,chicken,artichok,artichok
olives,bourbon,coke,turkey,ice_crea,sardines,peppers
soda,olives,bourbon,cracker,heineken,baguette,peppers
baguette,sardines,apples,peppers,avocado,coke,ice_crea
corned_b,peppers,bourbon,cracker,chicken,artichok,hering
sardines,heineken,chicken,coke,ice_crea,peppers,olives
corned_b,peppers,bourbon,cracker,chicken,bordeaux,ice_crea
soda,olives,bourbon,cracker,heineken,corned_b,artichok
baguette,sardines,apples,peppers,avocado,cracker,cracker
soda,olives,bourbon,cracker,heineken,apples,artichok
soda,olives,bourbon,cracker,heineken,chicken,hering
corned_b,peppers,bourbon,cracker,chicken,baguette,artichok
corned_b,peppers,bourbon,cracker,chicken,hering,apples
baguette,hering,avocado,artichok,heineken,bordeaux,peppers
avocado,cracker,artichok,heineken,ham,baguette,corned_b
baguette,hering,avocado,artichok,heineken,steak,turkey
baguette,hering,avocado,artichok,heineken,steak,turkey
corned_b,peppers,bourbon,cracker,chicken,bordeaux,ice_crea
baguette,sardines,apples,peppers,avocado,chicken,hering
sardines,heineken,chicken,coke,ice_crea,bourbon,corned_b
soda,olives,bourbon,cracker,heineken,corned_b,chicken
sardines,heineken,chicken,coke,ice_crea,avocado,olives
avocado,cracker,artichok,heineken,ham,bordeaux,soda
hering,corned_b,olives,ham,turkey,peppers,ice_crea
olives,bourbon,coke,turkey,ice_crea,ham,corned_b
baguette,hering,avocado,artichok,heineken,apples,soda
hering,corned_b,olives,ham,turkey,coke,bourbon
corned_b,peppers,bourbon,cracker,chicken,apples,heineken
baguette,soda,hering,cracker,heineken,turkey,bourbon
hering,corned_b,olives,ham,turkey,soda,avocado
corned_b,peppers,bourbon,cracker,chicken,soda,ice_crea
olives,bourbon,coke,turkey,ice_crea,hering,heineken
soda,olives,bourbon,cracker,heineken,hering,peppers
soda,olives,bourbon,cracker,heineken,ice_crea,turkey
sardines,heineken,chicken,coke,ice_crea,cracker,steak
corned_b,peppers,bourbon,cracker,chicken,apples,heineken
baguette,soda,hering,cracker,heineken,coke,ice_crea
baguette,sardines,apples,peppers,avocado,steak,heineken
avocado,cracker,artichok,heineken,ham,hering,olives
sardines,heineken,chicken,coke,ice_crea,soda,baguette
baguette,sardines,apples,peppers,avocado,bordeaux,heineken
soda,olives,bourbon,cracker,heineken,peppers,artichok
hering,corned_b,apples,olives,steak,ham,baguette
sardines,heineken,chicken,coke,ice_crea,cracker,peppers
sardines,heineken,chicken,coke,ice_crea,bordeaux,baguette
soda,olives,bourbon,cracker,heineken,coke,ice_crea
sardines,heineken,chicken,coke,ice_crea,peppers,bourbon
baguette,hering,avocado,artichok,heineken,apples,apples
sardines,heineken,chicken,coke,ice_crea,olives,corned_b
soda,olives,bourbon,cracker,heineken,bordeaux,artichok
sardines,heineken,chicken,coke,ice_crea,soda,bourbon
hering,corned_b,apples,olives,steak,coke,heineken
sardines,heineken,chicken,coke,ice_crea,cracker,ham
sardines,heineken,chicken,coke,ice_crea,artichok,steak
hering,corned_b,apples,olives,steak,peppers,peppers
baguette,sardines,apples,peppers,avocado,turkey,turkey
baguette,hering,avocado,artichok,heineken,bourbon,corned_b
baguette,hering,avocado,artichok,heineken,bordeaux,soda
baguette,hering,avocado,artichok,heineken,cracker,sardines
baguette,soda,hering,cracker,heineken,bourbon,olives
baguette,soda,hering,cracker,heineken,ham,apples
corned_b,peppers,bourbon,cracker,chicken,heineken,sardines
baguette,soda,hering,cracker,heineken,artichok,chicken
corned_b,peppers,bourbon,cracker,chicken,steak,apples
baguette,soda,hering,cracker,heineken,avocado,turkey
olives,bourbon,coke,turkey,ice_crea,peppers,artichok
soda,olives,bourbon,cracker,heineken,steak,artichok
baguette,sardines,apples,peppers,avocado,bourbon,bourbon
hering,corned_b,olives,ham,turkey,ice_crea,artichok
baguette,soda,hering,cracker,heineken,apples,ham
soda,olives,bourbon,cracker,heineken,apples,steak
hering,corned_b,olives,ham,turkey,peppers,cracker
avocado,cracker,artichok,heineken,ham,hering,turkey
corned_b,peppers,bourbon,cracker,chicken,heineken,avocado
avocado,cracker,artichok,heineken,ham,steak,steak
baguette,hering,avocado,artichok,heineken,corned_b,steak
hering,corned_b,apples,olives,steak,sardines,soda
soda,olives,bourbon,cracker,heineken,turkey,hering
baguette,sardines,apples,peppers,avocado,soda,olives
corned_b,peppers,bourbon,cracker,chicken,hering,steak
sardines,heineken,chicken,coke,ice_crea,bordeaux,olives
baguette,hering,avocado,artichok,heineken,olives,olives
corned_b,peppers,bourbon,cracker,chicken,baguette,ham
hering,corned_b,apples,olives,steak,bourbon,heineken
sardines,heineken,chicken,coke,ice_crea,bordeaux,olives
hering,corned_b,olives,ham,turkey,bourbon,soda
baguette,hering,avocado,artichok,heineken,apples,corned_b
baguette,sardines,apples,peppers,avocado,olives,turkey
sardines,heineken,chicken,coke,ice_crea,apples,turkey
avocado,cracker,artichok,heineken,ham,peppers,steak
baguette,hering,avocado,artichok,heineken,bourbon,bourbon
baguette,soda,hering,cracker,heineken,turkey,turkey
olives,bourbon,coke,turkey,ice_crea,hering,sardines
hering,corned_b,olives,ham,turkey,soda,bourbon
hering,corned_b,olives,ham,turkey,steak,heineken
baguette,hering,avocado,artichok,heineken,bourbon,chicken
sardines,heineken,chicken,coke,ice_crea,bordeaux,bourbon
olives,bourbon,coke,turkey,ice_crea,steak,heineken
olives,bourbon,coke,turkey,ice_crea,peppers,steak
olives,bourbon,coke,turkey,ice_crea,apples,peppers
corned_b,peppers,bourbon,cracker,chicken,coke,apples
sardines,heineken,chicken,coke,ice_crea,ham,peppers
sardines,heineken,chicken,coke,ice_crea,corned_b,turkey
soda,olives,bourbon,cracker,heineken,coke,chicken
hering,corned_b,apples,olives,steak,chicken,artichok
soda,olives,bourbon,cracker,heineken,turkey,hering
sardines,heineken,chicken,coke,ice_crea,apples,cracker
hering,corned_b,olives,ham,turkey,cracker,chicken
avocado,cracker,artichok,heineken,ham,soda,peppers
hering,corned_b,apples,olives,steak,ice_crea,coke
avocado,cracker,artichok,heineken,ham,bordeaux,hering
hering,corned_b,olives,ham,turkey,heineken,bourbon
avocado,cracker,artichok,heineken,ham,chicken,chicken
sardines,heineken,chicken,coke,ice_crea,peppers,ham
baguette,hering,avocado,artichok,heineken,sardines,corned_b
baguette,hering,avocado,artichok,heineken,peppers,steak
hering,corned_b,apples,olives,steak,cracker,artichok
hering,corned_b,apples,olives,steak,avocado,ham
sardines,heineken,chicken,coke,ice_crea,ham,corned_b
corned_b,peppers,bourbon,cracker,chicken,baguette,hering
corned_b,peppers,bourbon,cracker,chicken,soda,olives
soda,olives,bourbon,cracker,heineken,peppers,steak
corned_b,peppers,bourbon,cracker,chicken,heineken,turkey
olives,bourbon,coke,turkey,ice_crea,steak,chicken
baguette,soda,hering,cracker,heineken,steak,olives
baguette,soda,hering,cracker,heineken,peppers,corned_b
olives,bourbon,coke,turkey,ice_crea,hering,heineken
hering,corned_b,olives,ham,turkey,bordeaux,ice_crea
avocado,cracker,artichok,heineken,ham,chicken,corned_b
soda,olives,bourbon,cracker,heineken,artichok,coke
baguette,soda,hering,cracker,heineken,artichok,apples
baguette,soda,hering,cracker,heineken,peppers,sardines
olives,bourbon,coke,turkey,ice_crea,apples,baguette
hering,corned_b,apples,olives,steak,avocado,peppers
baguette,sardines,apples,peppers,avocado,steak,turkey
olives,bourbon,coke,turkey,ice_crea,cracker,baguette
soda,olives,bourbon,cracker,heineken,steak,sardines
sardines,heineken,chicken,coke,ice_crea,bourbon,olives
olives,bourbon,coke,turkey,ice_crea,bordeaux,apples
baguette,soda,hering,cracker,heineken,apples,olives
baguette,hering,avocado,artichok,heineken,steak,sardines
olives,bourbon,coke,turkey,ice_crea,sardines,ham
avocado,cracker,artichok,heineken,ham,bordeaux,chicken
baguette,hering,avocado,artichok,heineken,olives,corned_b
baguette,soda,hering,cracker,heineken,sardines,artichok
baguette,hering,avocado,artichok,heineken,coke,ice_crea
baguette,soda,hering,cracker,heineken,bourbon,sardines
hering,corned_b,olives,ham,turkey,ice_crea,steak
hering,corned_b,olives,ham,turkey,steak,avocado
avocado,cracker,artichok,heineken,ham,bordeaux,corned_b
olives,bourbon,coke,turkey,ice_crea,peppers,avocado
corned_b,peppers,bourbon,cracker,chicken,heineken,artichok
soda,olives,bourbon,cracker,heineken,ice_crea,apples
avocado,cracker,artichok,heineken,ham,ice_crea,corned_b
corned_b,peppers,bourbon,cracker,chicken,apples,olives
avocado,cracker,artichok,heineken,ham,soda,steak
hering,corned_b,apples,olives,steak,soda,coke
baguette,sardines,apples,peppers,avocado,steak,turkey
baguette,hering,avocado,artichok,heineken,turkey,bourbon
soda,olives,bourbon,cracker,heineken,bordeaux,avocado
corned_b,peppers,bourbon,cracker,chicken,heineken,turkey
soda,olives,bourbon,cracker,heineken,peppers,chicken
baguette,sardines,apples,peppers,avocado,heineken,ham
corned_b,peppers,bourbon,cracker,chicken,ham,heineken
sardines,heineken,chicken,coke,ice_crea,bordeaux,corned_b
avocado,cracker,artichok,heineken,ham,coke,soda
baguette,soda,hering,cracker,heineken,avocado,ham
baguette,hering,avocado,artichok,heineken,coke,turkey
hering,corned_b,apples,olives,steak,baguette,bourbon
baguette,sardines,apples,peppers,avocado,bordeaux,artichok
soda,olives,bourbon,cracker,heineken,chicken,apples
hering,corned_b,olives,ham,turkey,ice_crea,soda
sardines,heineken,chicken,coke,ice_crea,turkey,bourbon
avocado,cracker,artichok,heineken,ham,bordeaux,peppers
olives,bourbon,coke,turkey,ice_crea,artichok,apples
avocado,cracker,artichok,heineken,ham,corned_b,chicken
olives,bourbon,coke,turkey,ice_crea,peppers,chicken
baguette,sardines,apples,peppers,avocado,chicken,artichok
baguette,soda,hering,cracker,heineken,bourbon,peppers
olives,bourbon,coke,turkey,ice_crea,peppers,chicken
hering,corned_b,olives,ham,turkey,peppers,cracker
baguette,hering,avocado,artichok,heineken,apples,peppers
soda,olives,bourbon,cracker,heineken,corned_b,ham
baguette,hering,avocado,artichok,heineken,steak,apples
hering,corned_b,apples,olives,steak,cracker,ice_crea
hering,corned_b,olives,ham,turkey,soda,cracker
baguette,hering,avocado,artichok,heineken,bordeaux,soda
soda,olives,bourbon,cracker,heineken,corned_b,apples
avocado,cracker,artichok,heineken,ham,turkey,ice_crea
baguette,sardines,apples,peppers,avocado,chicken,steak
soda,olives,bourbon,cracker,heineken,hering,chicken
corned_b,peppers,bourbon,cracker,chicken,soda,hering
sardines,heineken,chicken,coke,ice_crea,ham,avocado
baguette,sardines,apples,peppers,avocado,cracker,heineken
baguette,hering,avocado,artichok,heineken,olives,cracker
avocado,cracker,artichok,heineken,ham,corned_b,bourbon
olives,bourbon,coke,turkey,ice_crea,bordeaux,apples
soda,olives,bourbon,cracker,heineken,bordeaux,avocado
corned_b,peppers,bourbon,cracker,chicken,ham,hering
corned_b,peppers,bourbon,cracker,chicken,soda,sardines
olives,bourbon,coke,turkey,ice_crea,sardines,steak
sardines,heineken,chicken,coke,ice_crea,bourbon,artichok
soda,olives,bourbon,cracker,heineken,peppers,apples
avocado,cracker,artichok,heineken,ham,sardines,peppers
hering,corned_b,apples,olives,steak,cracker,peppers
hering,corned_b,apples,olives,steak,ice_crea,soda
hering,corned_b,olives,ham,turkey,bordeaux,peppers
baguette,soda,hering,cracker,heineken,steak,corned_b
olives,bourbon,coke,turkey,ice_crea,steak,soda
olives,bourbon,coke,turkey,ice_crea,baguette,apples
baguette,soda,hering,cracker,heineken,olives,apples
hering,corned_b,olives,ham,turkey,bordeaux,baguette
hering,corned_b,apples,olives,steak,chicken,coke
baguette,sardines,apples,peppers,avocado,soda,coke
sardines,heineken,chicken,coke,ice_crea,bordeaux,turkey
hering,corned_b,apples,olives,steak,chicken,ham
baguette,soda,hering,cracker,heineken,peppers,coke
soda,olives,bourbon,cracker,heineken,ham,baguette
avocado,cracker,artichok,heineken,ham,corned_b,baguette
baguette,soda,hering,cracker,heineken,artichok,turkey
baguette,soda,hering,cracker,heineken,chicken,ice_crea
baguette,soda,hering,cracker,heineken,olives,avocado
corned_b,peppers,bourbon,cracker,chicken,avocado,sardines
soda,olives,bourbon,cracker,heineken,peppers,avocado
hering,corned_b,apples,olives,steak,soda,avocado
baguette,sardines,apples,peppers,avocado,artichok,artichok
hering,corned_b,olives,ham,turkey,chicken,coke
baguette,soda,hering,cracker,heineken,peppers,bourbon
hering,corned_b,olives,ham,turkey,apples,steak
hering,corned_b,olives,ham,turkey,artichok,baguette
baguette,soda,hering,cracker,heineken,bordeaux,ice_crea
avocado,cracker,artichok,heineken,ham,apples,hering
olives,bourbon,coke,turkey,ice_crea,steak,steak
corned_b,peppers,bourbon,cracker,chicken,heineken,apples
sardines,heineken,chicken,coke,ice_crea,corned_b,bourbon
avocado,cracker,artichok,heineken,ham,hering,ice_crea
baguette,hering,avocado,artichok,heineken,coke,steak
hering,corned_b,apples,olives,steak,bourbon,chicken
baguette,hering,avocado,artichok,heineken,turkey,apples
hering,corned_b,olives,ham,turkey,artichok,bourbon
hering,corned_b,olives,ham,turkey,soda,soda
corned_b,peppers,bourbon,cracker,chicken,bordeaux,hering
corned_b,peppers,bourbon,cracker,chicken,artichok,coke
baguette,hering,avocado,artichok,heineken,apples,corned_b
hering,corned_b,olives,ham,turkey,heineken,artichok
hering,corned_b,olives,ham,turkey,soda,apples
olives,bourbon,coke,turkey,ice_crea,artichok,heineken
olives,bourbon,coke,turkey,ice_crea,sardines,soda
soda,olives,bourbon,cracker,heineken,turkey,sardines
baguette,hering,avocado,artichok,heineken,steak,steak
hering,corned_b,apples,olives,steak,peppers,baguette
sardines,heineken,chicken,coke,ice_crea,ham,baguette
hering,corned_b,olives,ham,turkey,steak,chicken
baguette,soda,hering,cracker,heineken,turkey,steak
hering,corned_b,olives,ham,turkey,coke,sardines
baguette,sardines,apples,peppers,avocado,bourbon,bourbon
olives,bourbon,coke,turkey,ice_crea,bordeaux,corned_b
baguette,soda,hering,cracker,heineken,avocado,avocado
hering,corned_b,olives,ham,turkey,cracker,avocado
baguette,soda,hering,cracker,heineken,peppers,peppers
soda,olives,bourbon,cracker,heineken,artichok,peppers
baguette,sardines,apples,peppers,avocado,heineken,hering
soda,olives,bourbon,cracker,heineken,sardines,peppers
baguette,hering,avocado,artichok,heineken,chicken,turkey
baguette,soda,hering,cracker,heineken,peppers,ice_crea
baguette,soda,hering,cracker,heineken,turkey,sardines
baguette,sardines,apples,peppers,avocado,bourbon,ice_crea
olives,bourbon,coke,turkey,ice_crea,steak,heineken
avocado,cracker,artichok,heineken,ham,corned_b,sardines
avocado,cracker,artichok,heineken,ham,hering,chicken
hering,corned_b,olives,ham,turkey,artichok,baguette
baguette,soda,hering,cracker,heineken,steak,chicken
hering,corned_b,olives,ham,turkey,peppers,sardines
avocado,cracker,artichok,heineken,ham,apples,ice_crea
avocado,cracker,artichok,heineken,ham,corned_b,olives
avocado,cracker,artichok,heineken,ham,hering,peppers
corned_b,peppers,bourbon,cracker,chicken,turkey,apples
sardines,heineken,chicken,coke,ice_crea,apples,apples
baguette,hering,avocado,artichok,heineken,bordeaux,sardines
olives,bourbon,coke,turkey,ice_crea,artichok,ham
olives,bourbon,coke,turkey,ice_crea,steak,artichok
baguette,hering,avocado,artichok,heineken,ham,corned_b
baguette,sardines,apples,peppers,avocado,corned_b,chicken
avocado,cracker,artichok,heineken,ham,turkey,corned_b
avocado,cracker,artichok,heineken,ham,sardines,corned_b
olives,bourbon,coke,turkey,ice_crea,soda,corned_b
baguette,soda,hering,cracker,heineken,sardines,avocado
olives,bourbon,coke,turkey,ice_crea,bordeaux,ham
avocado,cracker,artichok,heineken,ham,soda,steak
corned_b,peppers,bourbon,cracker,chicken,steak,turkey
hering,corned_b,olives,ham,turkey,artichok,avocado
hering,corned_b,olives,ham,turkey,chicken,peppers
baguette,hering,avocado,artichok,heineken,bourbon,corned_b
baguette,sardines,apples,peppers,avocado,steak,bourbon
olives,bourbon,coke,turkey,ice_crea,avocado,sardines
hering,corned_b,apples,olives,steak,artichok,chicken
baguette,sardines,apples,peppers,avocado,cracker,olives
baguette,sardines,apples,peppers,avocado,hering,cracker
avocado,cracker,artichok,heineken,ham,steak,steak
hering,corned_b,olives,ham,turkey,avocado,artichok
baguette,soda,hering,cracker,heineken,steak,artichok
hering,corned_b,apples,olives,steak,peppers,peppers
hering,corned_b,olives,ham,turkey,chicken,coke
baguette,soda,hering,cracker,heineken,ice_crea,chicken
hering,corned_b,apples,olives,steak,coke,artichok
hering,corned_b,olives,ham,turkey,steak,steak
sardines,heineken,chicken,coke,ice_crea,turkey,ham
olives,bourbon,coke,turkey,ice_crea,ham,peppers
corned_b,peppers,bourbon,cracker,chicken,olives,turkey
soda,olives,bourbon,cracker,heineken,coke,ham
sardines,heineken,chicken,coke,ice_crea,avocado,baguette
soda,olives,bourbon,cracker,heineken,peppers,chicken
baguette,soda,hering,cracker,heineken,artichok,avocado
corned_b,peppers,bourbon,cracker,chicken,hering,coke
soda,olives,bourbon,cracker,heineken,ham,avocado
baguette,soda,hering,cracker,heineken,artichok,peppers
olives,bourbon,coke,turkey,ice_crea,steak,heineken
sardines,heineken,chicken,coke,ice_crea,baguette,hering
baguette,hering,avocado,artichok,heineken,peppers,ham
avocado,cracker,artichok,heineken,ham,ice_crea,apples
baguette,soda,hering,cracker,heineken,corned_b,sardines
baguette,hering,avocado,artichok,heineken,chicken,cracker
corned_b,peppers,bourbon,cracker,chicken,ice_crea,apples
olives,bourbon,coke,turkey,ice_crea,artichok,apples
sardines,heineken,chicken,coke,ice_crea,cracker,soda
soda,olives,bourbon,cracker,heineken,apples,sardines
baguette,sardines,apples,peppers,avocado,turkey,ham
baguette,hering,avocado,artichok,heineken,olives,chicken
baguette,soda,hering,cracker,heineken,sardines,peppers
baguette,hering,avocado,artichok,heineken,soda,chicken
hering,corned_b,olives,ham,turkey,coke,cracker
baguette,sardines,apples,peppers,avocado,corned_b,soda
soda,olives,bourbon,cracker,heineken,bordeaux,ham
avocado,cracker,artichok,heineken,ham,soda,bourbon
sardines,heineken,chicken,coke,ice_crea,hering,peppers
baguette,hering,avocado,artichok,heineken,turkey,chicken
baguette,soda,hering,cracker,heineken,ice_crea,avocado
avocado,cracker,artichok,heineken,ham,bordeaux,olives
soda,olives,bourbon,cracker,heineken,apples,corned_b
corned_b,peppers,bourbon,cracker,chicken,sardines,ham
soda,olives,bourbon,cracker,heineken,corned_b,hering
corned_b,peppers,bourbon,cracker,chicken,baguette,apples
corned_b,peppers,bourbon,cracker,chicken,heineken,apples
sardines,heineken,chicken,coke,ice_crea,apples,ham
olives,bourbon,coke,turkey,ice_crea,artichok,ham
hering,corned_b,apples,olives,steak,bourbon,peppers
baguette,soda,hering,cracker,heineken,avocado,bourbon
baguette,soda,hering,cracker,heineken,chicken,peppers
olives,bourbon,coke,turkey,ice_crea,bordeaux,heineken
sardines,heineken,chicken,coke,ice_crea,bourbon,artichok
sardines,heineken,chicken,coke,ice_crea,bordeaux,hering
avocado,cracker,artichok,heineken,ham,peppers,corned_b
hering,corned_b,apples,olives,steak,sardines,turkey
hering,corned_b,olives,ham,turkey,chicken,apples
olives,bourbon,coke,turkey,ice_crea,artichok,cracker
baguette,hering,avocado,artichok,heineken,corned_b,apples
soda,olives,bourbon,cracker,heineken,ice_crea,peppers
olives,bourbon,coke,turkey,ice_crea,hering,ham
sardines,heineken,chicken,coke,ice_crea,cracker,baguette
avocado,cracker,artichok,heineken,ham,apples,chicken
baguette,sardines,apples,peppers,avocado,bourbon,artichok
baguette,soda,hering,cracker,heineken,apples,steak
soda,olives,bourbon,cracker,heineken,baguette,artichok
hering,corned_b,olives,ham,turkey,peppers,ice_crea
hering,corned_b,olives,ham,turkey,bourbon,sardines
corned_b,peppers,bourbon,cracker,chicken,baguette,heineken
hering,corned_b,olives,ham,turkey,baguette,apples
baguette,hering,avocado,artichok,heineken,olives,corned_b
avocado,cracker,artichok,heineken,ham,turkey,ice_crea
hering,corned_b,apples,olives,steak,cracker,sardines
avocado,cracker,artichok,heineken,ham,apples,ice_crea
hering,corned_b,olives,ham,turkey,ice_crea,sardines
baguette,sardines,apples,peppers,avocado,bourbon,bourbon
olives,bourbon,coke,turkey,ice_crea,chicken,cracker
baguette,hering,avocado,artichok,heineken,bourbon,steak
hering,corned_b,olives,ham,turkey,heineken,soda
baguette,soda,hering,cracker,heineken,corned_b,ice_crea
hering,corned_b,apples,olives,steak,bordeaux,artichok
baguette,soda,hering,cracker,heineken,steak,steak
sardines,heineken,chicken,coke,ice_crea,corned_b,peppers
hering,corned_b,apples,olives,steak,chicken,turkey
hering,corned_b,olives,ham,turkey,avocado,steak
olives,bourbon,coke,turkey,ice_crea,hering,artichok
avocado,cracker,artichok,heineken,ham,ice_crea,bourbon
baguette,hering,avocado,artichok,heineken,cracker,chicken
sardines,heineken,chicken,coke,ice_crea,hering,bourbon
olives,bourbon,coke,turkey,ice_crea,heineken,cracker
hering,corned_b,apples,olives,steak,artichok,avocado
baguette,hering,avocado,artichok,heineken,apples,soda
olives,bourbon,coke,turkey,ice_crea,cracker,baguette
hering,corned_b,apples,olives,steak,artichok,ice_crea
soda,olives,bourbon,cracker,heineken,steak,hering
baguette,sardines,apples,peppers,avocado,steak,cracker
baguette,hering,avocado,artichok,heineken,chicken,apples
corned_b,peppers,bourbon,cracker,chicken,artichok,artichok
hering,corned_b,apples,olives,steak,artichok,artichok
avocado,cracker,artichok,heineken,ham,coke,sardines
soda,olives,bourbon,cracker,heineken,corned_b,peppers
baguette,soda,hering,cracker,heineken,bourbon,peppers
baguette,soda,hering,cracker,heineken,corned_b,olives
hering,corned_b,olives,ham,turkey,artichok,steak
sardines,heineken,chicken,coke,ice_crea,peppers,bourbon
hering,corned_b,apples,olives,steak,ham,heineken
sardines,heineken,chicken,coke,ice_crea,ham,soda
baguette,sardines,apples,peppers,avocado,coke,chicken
baguette,soda,hering,cracker,heineken,peppers,avocado
baguette,sardines,apples,peppers,avocado,olives,heineken
hering,corned_b,apples,olives,steak,turkey,ice_crea
baguette,sardines,apples,peppers,avocado,bourbon,cracker
baguette,sardines,apples,peppers,avocado,bourbon,artichok
avocado,cracker,artichok,heineken,ham,olives,coke
corned_b,peppers,bourbon,cracker,chicken,ham,avocado
baguette,soda,hering,cracker,heineken,sardines,artichok
olives,bourbon,coke,turkey,ice_crea,chicken,chicken
soda,olives,bourbon,cracker,heineken,bordeaux,ice_crea
baguette,sardines,apples,peppers,avocado,bourbon,soda
sardines,heineken,chicken,coke,ice_crea,avocado,peppers
hering,corned_b,olives,ham,turkey,baguette,soda
baguette,sardines,apples,peppers,avocado,corned_b,cracker
soda,olives,bourbon,cracker,heineken,steak,hering
soda,olives,bourbon,cracker,heineken,peppers,baguette
olives,bourbon,coke,turkey,ice_crea,peppers,peppers
hering,corned_b,olives,ham,turkey,coke,ice_crea
baguette,soda,hering,cracker,heineken,turkey,artichok
baguette,hering,avocado,artichok,heineken,chicken,coke
avocado,cracker,artichok,heineken,ham,bourbon,hering
hering,corned_b,olives,ham,turkey,cracker,baguette
hering,corned_b,olives,ham,turkey,ice_crea,ice_crea
olives,bourbon,coke,turkey,ice_crea,heineken,steak
avocado,cracker,artichok,heineken,ham,bourbon,ice_crea
sardines,heineken,chicken,coke,ice_crea,cracker,apples
sardines,heineken,chicken,coke,ice_crea,soda,avocado
hering,corned_b,olives,ham,turkey,avocado,apples
hering,corned_b,olives,ham,turkey,bourbon,soda
baguette,soda,hering,cracker,heineken,olives,apples
baguette,soda,hering,cracker,heineken,coke,olives
baguette,soda,hering,cracker,heineken,coke,coke
baguette,sardines,apples,peppers,avocado,soda,olives
baguette,sardines,apples,peppers,avocado,bourbon,bourbon
corned_b,peppers,bourbon,cracker,chicken,ham,soda
sardines,heineken,chicken,coke,ice_crea,hering,olives
baguette,hering,avocado,artichok,heineken,ham,chicken
soda,olives,bourbon,cracker,heineken,hering,coke
sardines,heineken,chicken,coke,ice_crea,baguette,turkey
hering,corned_b,apples,olives,steak,sardines,heineken
soda,olives,bourbon,cracker,heineken,coke,corned_b
hering,corned_b,apples,olives,steak,chicken,artichok
sardines,heineken,chicken,coke,ice_crea,apples,ham
hering,corned_b,olives,ham,turkey,peppers,avocado
corned_b,peppers,bourbon,cracker,chicken,baguette,heineken
baguette,soda,hering,cracker,heineken,coke,avocado
baguette,sardines,apples,peppers,avocado,chicken,turkey
corned_b,peppers,bourbon,cracker,chicken,turkey,ice_crea
baguette,sardines,apples,peppers,avocado,bourbon,chicken
hering,corned_b,apples,olives,steak,bourbon,coke
baguette,sardines,apples,peppers,avocado,heineken,ice_crea
corned_b,peppers,bourbon,cracker,chicken,ice_crea,ice_crea
olives,bourbon,coke,turkey,ice_crea,artichok,ham
baguette,soda,hering,cracker,heineken,avocado,steak
olives,bourbon,coke,turkey,ice_crea,ham,baguette
olives,bourbon,coke,turkey,ice_crea,soda,sardines
soda,olives,bourbon,cracker,heineken,steak,ice_crea
olives,bourbon,coke,turkey,ice_crea,ham,artichok
soda,olives,bourbon,cracker,heineken,hering,hering
avocado,cracker,artichok,heineken,ham,steak,chicken
soda,olives,bourbon,cracker,heineken,apples,artichok
avocado,cracker,artichok,heineken,ham,sardines,turkey
soda,olives,bourbon,cracker,heineken,bordeaux,chicken
olives,bourbon,coke,turkey,ice_crea,hering,cracker
hering,corned_b,olives,ham,turkey,heineken,heineken
baguette,sardines,apples,peppers,avocado,soda,ice_crea
soda,olives,bourbon,cracker,heineken,bordeaux,baguette
soda,olives,bourbon,cracker,heineken,sardines,coke
hering,corned_b,olives,ham,turkey,apples,baguette
olives,bourbon,coke,turkey,ice_crea,ham,baguette
baguette,hering,avocado,artichok,heineken,soda,ham
soda,olives,bourbon,cracker,heineken,peppers,turkey
hering,corned_b,apples,olives,steak,avocado,avocado
sardines,heineken,chicken,coke,ice_crea,cracker,ham
baguette,hering,avocado,artichok,heineken,bourbon,bourbon
sardines,heineken,chicken,coke,ice_crea,steak,hering
olives,bourbon,coke,turkey,ice_crea,cracker,heineken
hering,corned_b,olives,ham,turkey,bourbon,heineken
avocado,cracker,artichok,heineken,ham,steak,soda
hering,corned_b,apples,olives,steak,ham,coke
soda,olives,bourbon,cracker,heineken,ham,turkey
hering,corned_b,olives,ham,turkey,avocado,heineken
baguette,soda,hering,cracker,heineken,bordeaux,coke
olives,bourbon,coke,turkey,ice_crea,soda,avocado
soda,olives,bourbon,cracker,heineken,corned_b,steak
avocado,cracker,artichok,heineken,ham,coke,ice_crea
baguette,soda,hering,cracker,heineken,avocado,chicken
baguette,sardines,apples,peppers,avocado,corned_b,coke
hering,corned_b,olives,ham,turkey,avocado,soda
sardines,heineken,chicken,coke,ice_crea,hering,hering
baguette,soda,hering,cracker,heineken,corned_b,avocado
hering,corned_b,olives,ham,turkey,coke,apples
baguette,soda,hering,cracker,heineken,apples,sardines
sardines,heineken,chicken,coke,ice_crea,avocado,olives
hering,corned_b,olives,ham,turkey,baguette,heineken
baguette,soda,hering,cracker,heineken,artichok,turkey
baguette,hering,avocado,artichok,heineken,bordeaux,ham
corned_b,peppers,bourbon,cracker,chicken,soda,ham
baguette,soda,hering,cracker,heineken,artichok,chicken
baguette,soda,hering,cracker,heineken,chicken,corned_b
corned_b,peppers,bourbon,cracker,chicken,baguette,steak
soda,olives,bourbon,cracker,heineken,steak,hering
avocado,cracker,artichok,heineken,ham,turkey,chicken
hering,corned_b,apples,olives,steak,bordeaux,turkey
corned_b,peppers,bourbon,cracker,chicken,coke,hering
avocado,cracker,artichok,heineken,ham,bourbon,peppers
hering,corned_b,olives,ham,turkey,bourbon,bourbon
corned_b,peppers,bourbon,cracker,chicken,artichok,artichok
hering,corned_b,apples,olives,steak,ham,heineken
corned_b,peppers,bourbon,cracker,chicken,steak,ice_crea
sardines,heineken,chicken,coke,ice_crea,artichok,baguette
baguette,soda,hering,cracker,heineken,bourbon,corned_b
soda,olives,bourbon,cracker,heineken,hering,coke
baguette,sardines,apples,peppers,avocado,turkey,soda
sardines,heineken,chicken,coke,ice_crea,bourbon,turkey
baguette,hering,avocado,artichok,heineken,apples,apples
avocado,cracker,artichok,heineken,ham,steak,corned_b
corned_b,peppers,bourbon,cracker,chicken,baguette,coke
avocado,cracker,artichok,heineken,ham,hering,steak
baguette,soda,hering,cracker,heineken,olives,corned_b
baguette,soda,hering,cracker,heineken,corned_b,artichok
sardines,heineken,chicken,coke,ice_crea,baguette,artichok
soda,olives,bourbon,cracker,heineken,apples,corned_b
baguette,sardines,apples,peppers,avocado,steak,corned_b
sardines,heineken,chicken,coke,ice_crea,corned_b,steak
avocado,cracker,artichok,heineken,ham,soda,coke
hering,corned_b,apples,olives,steak,heineken,ham
sardines,heineken,chicken,coke,ice_crea,bordeaux,steak
avocado,cracker,artichok,heineken,ham,sardines,corned_b
sardines,heineken,chicken,coke,ice_crea,apples,apples
hering,corned_b,olives,ham,turkey,bourbon,sardines
olives,bourbon,coke,turkey,ice_crea,cracker,baguette
baguette,hering,avocado,artichok,heineken,bourbon,apples
hering,corned_b,apples,olives,steak,baguette,chicken
avocado,cracker,artichok,heineken,ham,olives,bourbon
corned_b,peppers,bourbon,cracker,chicken,apples,steak
hering,corned_b,olives,ham,turkey,heineken,heineken
sardines,heineken,chicken,coke,ice_crea,apples,soda
baguette,hering,avocado,artichok,heineken,chicken,peppers
hering,corned_b,apples,olives,steak,soda,baguette
hering,corned_b,olives,ham,turkey,soda,cracker
sardines,heineken,chicken,coke,ice_crea,ham,bourbon
hering,corned_b,apples,olives,steak,bourbon,heineken
hering,corned_b,apples,olives,steak,bordeaux,avocado
hering,corned_b,apples,olives,steak,sardines,chicken
baguette,soda,hering,cracker,heineken,sardines,artichok
baguette,soda,hering,cracker,heineken,coke,coke
baguette,soda,hering,cracker,heineken,ice_crea,steak
baguette,hering,avocado,artichok,heineken,cracker,cracker
hering,corned_b,apples,olives,steak,baguette,turkey
avocado,cracker,artichok,heineken,ham,olives,ice_crea
avocado,cracker,artichok,heineken,ham,coke,soda
hering,corned_b,olives,ham,turkey,bordeaux,peppers
baguette,hering,avocado,artichok,heineken,apples,bourbon
sardines,heineken,chicken,coke,ice_crea,bourbon,avocado
hering,corned_b,apples,olives,steak,chicken,ice_crea
avocado,cracker,artichok,heineken,ham,turkey,olives
soda,olives,bourbon,cracker,heineken,artichok,ham
baguette,soda,hering,cracker,heineken,sardines,olives
baguette,hering,avocado,artichok,heineken,apples,turkey
avocado,cracker,artichok,heineken,ham,sardines,ice_crea
soda,olives,bourbon,cracker,heineken,turkey,steak
hering,corned_b,apples,olives,steak,baguette,ice_crea
baguette,hering,avocado,artichok,heineken,chicken,bourbon
baguette,hering,avocado,artichok,heineken,soda,ice_crea
baguette,sardines,apples,peppers,avocado,coke,corned_b
corned_b,peppers,bourbon,cracker,chicken,hering,sardines
hering,corned_b,apples,olives,steak,soda,coke
hering,corned_b,apples,olives,steak,bordeaux,baguette
baguette,soda,hering,cracker,heineken,chicken,olives
hering,corned_b,olives,ham,turkey,apples,steak
hering,corned_b,apples,olives,steak,coke,ham
baguette,sardines,apples,peppers,avocado,hering,bourbon
sardines,heineken,chicken,coke,ice_crea,turkey,ham
baguette,hering,avocado,artichok,heineken,ice_crea,steak
baguette,hering,avocado,artichok,heineken,corned_b,chicken
sardines,heineken,chicken,coke,ice_crea,bordeaux,cracker
olives,bourbon,coke,turkey,ice_crea,ham,apples
soda,olives,bourbon,cracker,heineken,turkey,chicken
olives,bourbon,coke,turkey,ice_crea,cracker,chicken
olives,bourbon,coke,turkey,ice_crea,ham,artichok
sardines,heineken,chicken,coke,ice_crea,steak,ham
olives,bourbon,coke,turkey,ice_crea,baguette,steak
sardines,heineken,chicken,coke,ice_crea,apples,baguette
corned_b,peppers,bourbon,cracker,chicken,heineken,artichok
baguette,sardines,apples,peppers,avocado,corned_b,cracker
hering,corned_b,apples,olives,steak,ham,heineken
hering,corned_b,olives,ham,turkey,baguette,ice_crea
baguette,hering,avocado,artichok,heineken,bordeaux,cracker
baguette,soda,hering,cracker,heineken,ice_crea,coke
corned_b,peppers,bourbon,cracker,chicken,soda,olives
hering,corned_b,apples,olives,steak,avocado,peppers
hering,corned_b,olives,ham,turkey,bourbon,ice_crea
sardines,heineken,chicken,coke,ice_crea,apples,artichok
baguette,soda,hering,cracker,heineken,corned_b,ham
soda,olives,bourbon,cracker,heineken,steak,hering
baguette,hering,avocado,artichok,heineken,bordeaux,corned_b
baguette,sardines,apples,peppers,avocado,bordeaux,cracker
baguette,hering,avocado,artichok,heineken,sardines,corned_b
avocado,cracker,artichok,heineken,ham,sardines,hering
baguette,sardines,apples,peppers,avocado,steak,ice_crea
hering,corned_b,apples,olives,steak,bordeaux,ham
corned_b,peppers,bourbon,cracker,chicken,heineken,sardines
olives,bourbon,coke,turkey,ice_crea,soda,sardines
olives,bourbon,coke,turkey,ice_crea,apples,soda
hering,corned_b,apples,olives,steak,bordeaux,cracker
olives,bourbon,coke,turkey,ice_crea,sardines,apples
corned_b,peppers,bourbon,cracker,chicken,apples,baguette
olives,bourbon,coke,turkey,ice_crea,corned_b,sardines
olives,bourbon,coke,turkey,ice_crea,peppers,hering
hering,corned_b,olives,ham,turkey,soda,peppers
sardines,heineken,chicken,coke,ice_crea,avocado,cracker
sardines,heineken,chicken,coke,ice_crea,olives,peppers
baguette,soda,hering,cracker,heineken,olives,avocado
hering,corned_b,olives,ham,turkey,chicken,ice_crea
sardines,heineken,chicken,coke,ice_crea,hering,ham
soda,olives,bourbon,cracker,heineken,steak,chicken
avocado,cracker,artichok,heineken,ham,bourbon,apples
baguette,sardines,apples,peppers,avocado,coke,steak
avocado,cracker,artichok,heineken,ham,apples,baguette
hering,corned_b,apples,olives,steak,soda,artichok
baguette,hering,avocado,artichok,heineken,peppers,peppers
baguette,hering,avocado,artichok,heineken,chicken,turkey
baguette,hering,avocado,artichok,heineken,steak,corned_b
hering,corned_b,apples,olives,steak,artichok,sardines
soda,olives,bourbon,cracker,heineken,hering,baguette
baguette,soda,hering,cracker,heineken,bourbon,ice_crea
hering,corned_b,apples,olives,steak,ice_crea,baguette
corned_b,peppers,bourbon,cracker,chicken,turkey,coke
baguette,sardines,apples,peppers,avocado,turkey,cracker
hering,corned_b,apples,olives,steak,turkey,baguette
baguette,sardines,apples,peppers,avocado,hering,soda
avocado,cracker,artichok,heineken,ham,peppers,coke
baguette,sardines,apples,peppers,avocado,olives,ice_crea
soda,olives,bourbon,cracker,heineken,chicken,apples
baguette,sardines,apples,peppers,avocado,corned_b,steak
baguette,sardines,apples,peppers,avocado,turkey,ice_crea
sardines,heineken,chicken,coke,ice_crea,artichok,turkey
avocado,cracker,artichok,heineken,ham,bourbon,apples
soda,olives,bourbon,cracker,heineken,sardines,chicken
hering,corned_b,apples,olives,steak,sardines,cracker
soda,olives,bourbon,cracker,heineken,corned_b,baguette
hering,corned_b,apples,olives,steak,sardines,bourbon
corned_b,peppers,bourbon,cracker,chicken,baguette,soda
corned_b,peppers,bourbon,cracker,chicken,turkey,apples
hering,corned_b,apples,olives,steak,coke,soda
hering,corned_b,apples,olives,steak,sardines,peppers
sardines,heineken,chicken,coke,ice_crea,hering,apples
hering,corned_b,olives,ham,turkey,coke,apples
corned_b,peppers,bourbon,cracker,chicken,ham,steak
avocado,cracker,artichok,heineken,ham,sardines,sardines
baguette,hering,avocado,artichok,heineken,sardines,apples
hering,corned_b,olives,ham,turkey,heineken,cracker
soda,olives,bourbon,cracker,heineken,hering,apples
hering,corned_b,olives,ham,turkey,chicken,bourbon
sardines,heineken,chicken,coke,ice_crea,olives,soda
sardines,heineken,chicken,coke,ice_crea,baguette,bourbon
corned_b,peppers,bourbon,cracker,chicken,steak,soda
corned_b,peppers,bourbon,cracker,chicken,steak,ham
sardines,heineken,chicken,coke,ice_crea,apples,corned_b
soda,olives,bourbon,cracker,heineken,ice_crea,ice_crea
olives,bourbon,coke,turkey,ice_crea,apples,artichok
soda,olives,bourbon,cracker,heineken,artichok,steak
soda,olives,bourbon,cracker,heineken,turkey,artichok
sardines,heineken,chicken,coke,ice_crea,artichok,steak
baguette,hering,avocado,artichok,heineken,ham,ice_crea
soda,olives,bourbon,cracker,heineken,ice_crea,ice_crea
avocado,cracker,artichok,heineken,ham,sardines,steak
hering,corned_b,apples,olives,steak,ham,avocado
olives,bourbon,coke,turkey,ice_crea,heineken,soda
hering,corned_b,olives,ham,turkey,baguette,artichok
hering,corned_b,apples,olives,steak,ice_crea,artichok
hering,corned_b,olives,ham,turkey,coke,apples
baguette,sardines,apples,peppers,avocado,cracker,steak
baguette,soda,hering,cracker,heineken,avocado,steak
baguette,hering,avocado,artichok,heineken,ham,apples
sardines,heineken,chicken,coke,ice_crea,olives,corned_b
corned_b,peppers,bourbon,cracker,chicken,steak,baguette
baguette,soda,hering,cracker,heineken,chicken,corned_b
sardines,heineken,chicken,coke,ice_crea,hering,apples
olives,bourbon,coke,turkey,ice_crea,baguette,chicken
corned_b,peppers,bourbon,cracker,chicken,soda,ice_crea
hering,corned_b,olives,ham,turkey,apples,ice_crea
sardines,heineken,chicken,coke,ice_crea,olives,bourbon
baguette,soda,hering,cracker,heineken,avocado,steak
hering,corned_b,apples,olives,steak,turkey,ice_crea
olives,bourbon,coke,turkey,ice_crea,ham,corned_b
baguette,sardines,apples,peppers,avocado,bordeaux,coke
baguette,soda,hering,cracker,heineken,corned_b,ham
hering,corned_b,apples,olives,steak,bordeaux,artichok
soda,olives,bourbon,cracker,heineken,chicken,apples
olives,bourbon,coke,turkey,ice_crea,peppers,steak
corned_b,peppers,bourbon,cracker,chicken,olives,ham
sardines,heineken,chicken,coke,ice_crea,hering,artichok
corned_b,peppers,bourbon,cracker,chicken,coke,hering
hering,corned_b,olives,ham,turkey,sardines,steak
hering,corned_b,apples,olives,steak,bourbon,avocado
avocado,cracker,artichok,heineken,ham,steak,olives
baguette,sardines,apples,peppers,avocado,corned_b,olives
sardines,heineken,chicken,coke,ice_crea,baguette,olives
baguette,soda,hering,cracker,heineken,ice_crea,steak
hering,corned_b,olives,ham,turkey,artichok,cracker
hering,corned_b,apples,olives,steak,bourbon,bourbon
avocado,cracker,artichok,heineken,ham,apples,peppers
avocado,cracker,artichok,heineken,ham,apples,soda
baguette,hering,avocado,artichok,heineken,chicken,bourbon
sardines,heineken,chicken,coke,ice_crea,peppers,cracker
olives,bourbon,coke,turkey,ice_crea,apples,sardines
soda,olives,bourbon,cracker,heineken,peppers,ham
baguette,soda,hering,cracker,heineken,olives,avocado
baguette,sardines,apples,peppers,avocado,corned_b,olives
baguette,soda,hering,cracker,heineken,apples,artichok
hering,corned_b,olives,ham,turkey,heineken,cracker
avocado,cracker,artichok,heineken,ham,baguette,coke
corned_b,peppers,bourbon,cracker,chicken,olives,olives
soda,olives,bourbon,cracker,heineken,coke,apples
baguette,sardines,apples,peppers,avocado,coke,cracker
sardines,heineken,chicken,coke,ice_crea,ham,corned_b
hering,corned_b,apples,olives,steak,chicken,soda
hering,corned_b,apples,olives,steak,baguette,ham
avocado,cracker,artichok,heineken,ham,chicken,bourbon
soda,olives,bourbon,cracker,heineken,hering,steak
hering,corned_b,olives,ham,turkey,artichok,chicken
baguette,sardines,apples,peppers,avocado,hering,ice_crea
olives,bourbon,coke,turkey,ice_crea,bordeaux,cracker
corned_b,peppers,bourbon,cracker,chicken,steak,apples
baguette,soda,hering,cracker,heineken,artichok,avocado
avocado,cracker,artichok,heineken,ham,corned_b,chicken
soda,olives,bourbon,cracker,heineken,avocado,avocado
baguette,sardines,apples,peppers,avocado,ice_crea,olives
sardines,heineken,chicken,coke,ice_crea,corned_b,peppers
hering,corned_b,apples,olives,steak,baguette,peppers
olives,bourbon,coke,turkey,ice_crea,peppers,peppers
